841	0	21231	23	32
841	1	19055	23	5
841	1	21231	24	45
841	2	21231	24	32
841	3	21231	24	48
841	4	21231	23	90
841	5	21231	24	25
841	5	23079	24	5
841	6	21231	23	30
841	7	21231	23	30
841	8	21231	24	27
841	9	21231	24	75
841	9	25923	2	2
842	0	25923	2	2
842	0	21231	23	90
842	1	21231	24	48
842	1	25923	2	2
842	2	25923	2	2
842	2	21231	24	75
842	3	25923	2	2
842	4	25923	2	2
842	5	25923	2	2
842	5	23611	24	5
842	5	21231	24	75
842	6	21231	24	48
842	6	25923	2	2
842	6	25691	21	6
842	7	21231	24	24
842	8	21231	24	45
843	0	21231	24	75
843	1	21231	24	45
843	1	25923	20	6
843	2	21231	24	45
843	3	21231	24	75
843	4	25691	18	27
843	4	21231	24	54
843	4	24623	19	8
843	5	21231	23	60
843	6	21231	23	45
843	7	21231	24	45
843	8	21231	24	75
844	0	21231	24	48
844	2	24623	19	8
844	2	23413	24	5
844	2	21231	24	75
844	4	21231	23	60
844	5	21231	23	60
844	6	21231	23	30
844	7	25289	21	6
844	7	21231	24	27
844	8	21231	24	48
844	9	24965	8	18
844	9	25923	20	6
844	9	21231	24	48
845	0	21231	24	36
845	1	19055	23	5
845	1	21231	24	36
845	2	21231	24	48
845	3	21231	24	75
845	4	21231	24	81
845	5	25289	21	6
845	5	25691	8	18
845	5	23079	19	8
845	5	21231	23	60
845	6	21231	23	90
845	8	21231	23	72
845	9	21231	24	40
846	0	21231	23	90
846	1	21231	23	90
846	2	21231	24	54
846	5	21231	23	81
846	6	21231	23	45
846	6	24965	4	16
846	7	21231	22	90
846	8	21231	24	45
846	9	21231	23	45
847	0	21231	23	45
847	1	21231	24	54
847	2	21231	23	45
847	3	21231	23	36
847	4	21231	23	45
847	5	21231	23	40
847	6	22679	23	5
847	6	21231	24	27
847	7	21231	24	40
847	7	25289	21	8
847	8	21231	23	45
847	9	21231	24	48
848	0	21231	23	90
848	1	19055	23	5
848	1	21231	24	81
848	2	21231	24	81
848	3	21231	24	36
848	4	21231	24	90
848	5	25289	21	8
848	5	21231	24	81
848	6	21231	24	25
848	7	21231	24	75
848	8	24965	2	40
848	8	21231	24	48
849	0	21231	23	60
849	1	21231	24	45
849	2	21231	23	90
849	4	21231	24	75
849	5	21231	23	90
849	6	24965	2	40
849	7	24965	0	25
849	7	21231	24	54
849	8	24965	0	12
849	9	21231	24	32
849	9	24965	2	12
850	0	24965	0	12
850	0	21231	24	75
850	1	24965	6	9
850	2	24965	0	12
850	2	21231	23	80
850	3	24965	0	25
850	3	21231	24	25
850	4	21231	23	50
850	5	21231	23	50
850	5	24965	3	32
850	6	21231	23	80
850	6	24965	7	2
850	7	21231	24	48
850	8	21231	24	45
851	0	21231	22	90
851	1	21231	24	75
851	2	21231	22	90
851	3	21231	24	36
851	4	21231	23	90
851	5	21231	24	45
851	6	21231	24	48
851	7	21231	23	60
851	8	21231	23	45
851	9	21231	22	90
852	0	21231	24	48
852	1	21231	23	75
852	2	21231	23	80
852	3	21231	24	40
852	4	21231	24	75
852	5	23611	11	15
852	5	21231	24	54
852	6	21231	24	45
852	7	21231	23	90
852	8	24965	1	24
852	8	21231	24	24
852	9	25923	9	16
852	9	21231	23	36
853	0	21231	24	75
853	1	21231	23	90
853	2	21231	23	80
853	3	21231	23	54
853	5	21231	21	90
853	6	21231	22	48
853	7	21231	22	72
853	8	23611	23	5
853	8	21231	23	45
853	9	21231	22	90
854	0	21231	24	48
854	1	21231	22	90
854	2	21231	23	90
854	3	21231	24	40
854	4	21231	24	75
854	5	21231	24	48
854	6	21231	24	40
854	7	21231	23	90
854	8	23611	23	5
854	8	21231	24	45
854	9	25923	14	10
854	9	21231	23	36
855	0	21231	22	90
855	1	21231	22	90
855	3	21231	23	75
855	4	21231	22	90
855	5	21231	23	90
855	6	21231	24	64
855	6	23611	19	3
855	7	21231	22	90
855	8	21231	22	90
855	9	21231	22	90
856	0	21231	23	45
856	1	21231	22	90
856	2	21231	22	90
856	4	23611	9	24
856	4	25289	23	6
856	4	21231	24	36
856	5	21231	22	80
856	6	21231	22	75
856	7	21231	21	90
856	8	21231	23	45
857	2	23611	14	2
857	2	23413	16	9
857	2	21231	22	81
857	3	21231	23	75
857	4	21231	23	75
857	5	23611	24	5
857	5	21231	23	45
857	6	25289	13	12
857	6	21231	22	80
857	7	21231	23	72
857	8	21231	23	30
857	9	25923	17	8
857	9	21231	23	64
858	0	21231	22	80
858	1	21231	21	90
858	2	21231	23	81
858	3	21231	22	80
858	4	21231	22	90
858	5	23611	24	5
858	5	21231	22	81
858	6	21231	23	45
858	6	25407	18	8
858	7	21231	24	48
858	7	25411	21	8
858	8	21231	22	32
858	9	21231	22	90
859	1	21231	23	75
859	5	25691	21	6
859	5	21231	23	54
859	8	21231	23	45
859	9	21231	23	75
860	0	21231	23	45
860	1	25411	22	6
860	1	21231	23	75
860	2	21231	23	75
860	3	21231	23	75
860	4	21231	23	45
860	5	21231	22	90
860	6	21231	21	90
860	7	21231	22	75
860	8	21231	21	90
860	9	25923	13	12
860	9	21231	23	45
861	0	21231	22	90
861	1	21231	21	90
861	2	21231	23	45
861	4	21231	23	75
861	5	21231	22	80
861	6	21231	22	80
861	7	21231	22	75
861	8	24965	1	45
861	8	21231	22	45
861	9	21231	23	75
862	2	21231	23	45
862	4	21231	22	90
862	5	21231	22	90
862	6	21231	23	80
862	6	24965	7	4
862	7	21231	24	75
862	8	21231	22	90
862	9	21231	22	72
863	0	21231	23	45
863	1	21231	21	90
863	2	21231	23	75
863	3	21231	23	72
863	4	21231	23	80
863	5	21231	23	75
863	6	21231	22	90
863	7	21231	23	75
863	8	21231	21	90
863	9	21231	21	90
864	0	21231	23	30
864	1	21231	21	90
864	2	21231	23	45
864	3	21231	23	54
864	4	21231	21	90
864	6	21231	21	90
864	7	21231	22	80
864	8	21231	22	60
864	9	21231	22	90
865	0	21231	23	75
865	1	21231	23	48
865	2	21231	21	80
865	3	21231	22	80
865	4	21231	21	32
865	4	25341	23	5
865	5	21231	21	81
865	6	21231	22	80
865	7	21231	22	80
865	8	24965	9	16
865	8	21231	21	75
865	9	21231	14	12
866	0	21231	23	60
866	1	21231	23	60
866	2	21231	23	24
866	3	21231	22	36
866	4	21231	23	30
866	5	21231	23	45
866	6	21231	22	36
866	7	21231	23	54
866	8	21231	23	40
866	9	21231	24	48
867	0	21231	24	48
867	1	21231	24	48
867	2	21231	23	30
867	3	21231	23	72
867	4	21231	23	45
867	5	25691	11	15
867	5	21231	23	72
867	6	21231	22	90
867	7	21231	24	45
867	8	21231	22	90
867	9	21231	23	75
868	0	24965	21	6
868	0	21231	24	45
868	1	21231	18	12
868	2	21231	23	75
868	3	21231	22	80
868	4	21231	23	45
868	5	21231	23	45
868	6	21231	23	60
868	7	25573	23	5
868	7	21231	23	30
868	8	21231	23	45
868	9	21231	21	90
869	0	21231	23	75
869	0	25935	2	2
869	1	25935	2	2
869	1	21231	22	75
869	2	25935	2	2
869	2	21231	23	45
869	3	21231	23	30
869	3	25935	2	2
869	4	25935	2	2
869	4	21231	21	90
869	5	25935	2	2
869	5	21231	21	81
869	6	25935	2	2
869	6	21231	21	90
869	7	25935	2	2
869	7	21231	21	90
869	8	24965	3	27
869	8	21231	24	32
869	8	25935	2	2
869	9	25935	20	2
869	9	21231	21	90
870	0	21231	23	75
870	1	21231	22	90
870	2	21231	23	45
870	3	21231	23	75
870	4	21231	21	90
870	5	25691	14	10
870	5	21231	23	75
870	6	21231	23	50
870	6	24965	2	40
870	7	24965	1	48
870	7	21231	23	40
870	8	25935	20	6
870	8	24965	2	24
870	8	21231	24	24
870	9	21231	24	32
870	9	24965	2	27
870	9	24623	19	8
871	0	24965	11	4
871	0	25923	21	8
871	0	21231	24	32
871	1	21231	23	75
871	2	21231	23	45
871	3	21231	23	75
871	4	25429	22	6
871	4	21231	23	75
871	5	21231	21	90
871	6	21231	21	90
871	7	21231	21	90
871	8	21231	24	45
871	9	21231	21	90
872	0	21231	24	25
872	0	25935	11	15
872	1	21231	23	45
872	2	21231	22	75
872	2	25429	22	6
872	3	21231	22	75
872	3	24623	24	5
872	4	25691	23	5
872	4	21231	23	45
872	5	21231	21	90
872	7	21231	22	90
872	8	24965	0	32
872	8	21231	22	32
872	9	21231	21	90
873	0	25923	13	12
873	1	21231	23	75
873	2	21231	22	90
873	3	21231	24	40
873	4	21231	22	75
873	5	25691	9	16
873	5	21231	22	75
873	6	21231	23	45
873	7	21231	21	90
873	8	21231	23	81
873	9	21231	22	90
874	0	21231	23	80
874	1	21231	22	90
874	2	21231	23	80
874	3	21231	23	80
874	4	21231	23	30
874	5	21231	22	90
874	6	21231	23	75
874	7	21231	23	75
874	8	21231	24	45
874	9	21231	23	80
875	0	21231	21	90
875	1	21231	23	81
875	2	21231	23	90
875	3	21231	23	75
875	4	21231	22	90
875	5	21231	22	90
875	6	21231	22	90
875	7	21231	22	90
875	8	21231	24	36
875	9	21231	21	90
876	0	25923	18	8
876	0	21231	24	48
876	1	21231	22	90
876	2	21231	24	45
876	3	21231	23	75
876	5	21231	21	90
876	6	21231	21	90
876	7	21231	23	80
876	8	21231	23	45
876	9	21231	23	90
877	0	21231	22	90
877	1	21231	21	90
877	2	21231	21	90
877	3	21231	23	75
877	4	21231	21	90
877	5	21231	21	90
877	6	21231	21	90
877	7	21231	22	90
877	8	21231	23	45
877	9	21231	21	90
878	0	21231	21	90
878	1	21231	23	54
878	2	21231	22	90
878	3	21231	23	80
878	4	21231	23	75
878	5	21231	21	90
878	6	21231	24	45
878	7	21231	24	45
878	8	21231	22	90
878	9	21231	22	90
879	0	25923	22	6
879	0	21231	24	45
879	1	21231	22	90
879	2	21231	23	90
879	3	21231	23	64
879	3	24623	12	15
879	6	21231	21	90
879	7	21231	22	81
879	8	21231	21	90
879	9	21231	21	90
880	0	21231	23	75
880	1	21231	23	75
880	2	21231	23	45
880	3	21231	22	72
880	3	24623	19	8
880	4	21231	22	90
880	5	21231	24	45
880	6	21231	22	90
880	7	21231	22	90
880	8	21231	23	80
880	9	21231	22	90
881	0	21231	22	90
881	1	21231	23	90
881	2	21231	22	90
881	3	21231	24	18
881	4	21231	23	90
881	5	21231	23	80
881	6	21231	22	90
881	7	21231	22	90
881	8	24965	0	16
881	8	25923	22	6
881	8	21231	24	40
881	9	21231	23	75
882	0	21231	23	75
882	1	21231	23	75
882	2	21231	22	90
882	3	21231	24	32
882	3	24623	10	15
882	4	21231	22	90
882	5	21231	22	90
882	6	21231	24	40
882	6	24965	0	16
882	7	24965	11	8
882	7	21231	24	75
882	8	21231	22	90
882	9	25923	13	12
882	9	21231	23	75
883	0	25391	2	32
883	0	21231	24	32
883	1	24623	13	3
883	2	21231	22	90
883	3	21231	23	80
883	4	21231	23	90
883	5	21231	23	90
883	6	21231	24	45
883	7	21231	22	90
883	8	24965	17	8
883	8	21231	23	75
883	9	21231	23	90
884	0	21231	22	90
884	1	24965	19	8
884	1	21231	24	45
884	2	21231	22	90
884	3	21231	23	75
884	3	24623	23	5
884	4	21231	22	90
884	5	21231	23	90
884	6	21231	23	75
884	7	21231	24	45
884	8	21231	23	90
884	9	21231	23	20
885	1	25391	3	16
885	1	21231	24	32
885	1	24623	19	12
885	1	24965	4	15
885	2	21231	22	90
885	3	21231	23	80
885	4	21231	24	64
885	4	24965	0	25
885	5	21231	23	80
885	5	24965	17	2
885	6	21231	24	45
885	7	21231	22	90
885	8	21231	23	75
885	9	24965	8	16
885	9	25923	21	6
885	9	21231	24	36
886	0	21231	23	60
886	1	21231	24	75
886	2	21231	22	90
886	4	21231	23	90
886	5	21231	23	75
886	6	21231	24	45
886	7	24965	4	27
886	7	21231	24	40
886	7	20409	22	6
886	8	24965	2	32
886	8	21231	23	60
886	9	24965	2	32
886	9	21231	23	30
887	0	24965	1	45
887	0	21231	24	45
887	1	21231	24	75
887	2	21231	23	90
887	3	21231	23	80
887	4	21231	23	45
887	5	24965	2	36
887	5	21231	24	54
887	6	21231	23	45
887	6	24965	1	45
887	7	24965	4	15
887	7	21231	23	75
887	8	21231	24	45
887	9	21231	24	75
888	0	21231	23	90
888	1	21231	23	90
888	2	21231	24	75
888	3	21231	24	64
888	3	24623	17	8
888	4	21231	24	75
888	5	21231	23	90
888	6	21231	24	40
888	7	21231	24	45
888	7	24965	11	15
888	8	21231	23	90
888	9	25923	15	9
888	9	21231	24	40
889	0	21231	24	75
889	1	21231	22	90
889	3	21231	23	80
889	4	21231	24	48
889	5	21231	22	90
889	6	21231	22	90
889	7	25923	19	30
889	8	20409	11	15
889	8	21231	24	25
889	9	21231	23	90
890	0	21231	24	54
890	1	21231	22	90
890	2	21231	24	48
890	3	21231	24	75
890	4	21231	23	90
890	6	21231	23	60
890	6	24965	12	5
890	7	21231	23	80
890	8	21231	23	30
890	9	21231	22	90
891	0	21231	22	90
891	1	21231	24	45
891	3	21231	23	80
891	4	24965	0	45
891	4	21231	23	45
891	5	21231	23	75
891	5	24965	0	15
891	6	21231	23	75
891	6	24965	0	16
891	7	24965	0	16
891	7	21231	23	75
891	8	24965	6	2
891	8	21231	23	30
891	9	21231	24	45
891	9	24965	3	18
892	0	21231	23	80
892	1	21231	24	45
892	1	24927	8	18
892	2	21231	24	75
892	4	21231	23	90
892	5	21231	23	90
892	6	21231	24	32
892	7	21231	22	90
892	8	24965	5	18
892	8	21231	24	20
892	9	25923	18	8
892	9	21231	23	75
893	1	24965	9	16
893	1	21231	24	45
893	2	21231	23	80
893	4	21231	23	80
893	6	21231	23	75
893	7	25923	18	8
893	9	21231	23	75
894	1	24965	9	16
894	1	21231	24	48
894	3	21231	23	72
894	4	21231	22	90
894	5	21231	24	75
894	7	21231	23	90
894	8	21231	24	45
894	9	21231	24	48
895	0	21231	23	30
895	1	21231	24	45
895	2	21231	22	90
895	3	21231	24	64
895	4	21231	24	45
895	5	21231	24	75
895	6	21231	24	32
895	6	25923	22	6
895	7	24965	0	6
895	7	21231	23	75
895	8	24965	23	3
895	8	21231	24	36
896	0	21231	24	64
896	1	24965	10	15
896	4	25923	22	6
896	5	21231	22	90
896	6	21231	23	72
896	7	21231	23	90
896	8	21231	24	45
897	1	21231	24	32
897	4	21231	23	75
897	7	21231	22	90
898	0	21231	23	75
898	1	24965	2	2
898	2	21231	21	90
898	5	21231	19	80
898	6	21231	23	40
898	8	21231	23	30
898	9	25923	8	18
898	9	24965	3	27
898	9	21231	22	36
899	0	24965	9	4
899	0	21231	23	50
899	1	21231	23	27
899	1	25947	2	2
899	2	25947	2	2
899	2	21231	23	64
899	3	25947	2	2
899	3	21231	22	75
899	4	25947	2	2
899	4	21231	21	90
899	5	21231	22	81
899	5	25947	2	2
899	6	21231	21	90
899	6	25947	2	2
899	7	24965	9	5
899	7	25947	2	2
899	7	21231	19	80
899	8	21231	23	30
899	8	25947	2	2
899	9	21231	23	40
900	0	21231	22	80
900	2	25947	19	8
900	2	21231	24	45
900	3	21231	23	75
900	4	21231	23	80
900	5	21231	21	90
900	6	21231	23	45
900	7	21231	23	72
900	8	21231	23	32
900	9	21231	23	45
901	1	24965	8	10
901	1	21231	23	45
901	2	21231	22	81
901	4	21231	23	45
901	7	21231	21	80
901	8	21231	18	20
901	9	24965	0	32
901	9	21231	23	50
902	0	21231	24	36
902	1	25947	16	9
902	1	24965	5	10
902	2	21231	23	45
902	4	21231	23	75
902	5	21231	23	50
902	6	21231	22	20
902	7	24965	11	5
902	7	21231	23	48
902	9	21231	19	9
903	0	21231	24	20
903	2	24965	4	27
903	2	21231	24	45
903	3	21231	24	54
903	4	21231	23	90
903	6	21231	24	48
903	7	21231	23	90
903	9	25923	17	8
903	9	21231	24	40
904	0	21231	22	90
904	1	25947	22	6
904	1	21231	23	45
904	1	24965	4	20
904	3	25951	8	2
904	3	21231	22	75
904	4	21231	22	72
904	5	21231	22	80
904	6	21231	22	81
904	7	21231	24	48
904	8	21231	23	30
904	9	21231	23	75
905	1	21231	22	90
905	2	21231	22	90
905	3	24853	5	24
905	3	21231	24	48
905	4	21231	21	90
905	5	21231	23	75
905	6	21231	24	36
905	7	21231	21	90
905	8	24965	4	15
905	8	21231	24	16
905	9	25923	15	10
905	9	21231	24	48
906	1	21231	23	75
906	2	21231	22	90
906	3	21231	23	75
906	4	21231	24	48
906	5	21231	23	90
906	6	21231	23	75
906	6	24965	2	2
906	7	24965	0	45
906	7	21231	23	45
906	8	24965	1	20
906	8	21231	24	24
906	8	25429	23	5
906	9	24965	5	24
906	9	21231	24	36
907	0	21231	23	60
907	1	21231	23	45
907	1	24853	11	15
907	2	21231	23	80
907	3	21231	23	80
907	4	21231	22	90
907	6	21231	23	64
907	7	21231	24	45
907	8	21231	24	48
907	9	21231	23	75
908	0	21231	24	20
908	2	24853	17	8
908	2	21231	24	45
908	3	25429	21	8
908	4	21231	24	48
908	5	21231	23	32
908	6	21231	23	30
908	7	21231	24	32
908	8	21231	24	32
908	9	21231	23	45
909	0	21231	24	27
909	1	25947	18	8
909	3	21231	24	32
909	5	21231	24	32
909	6	21231	24	32
909	7	21231	24	24
909	8	24965	2	40
910	0	21231	23	30
910	1	21231	21	60
910	2	24853	4	32
910	2	21231	22	45
910	3	21231	23	50
910	5	21231	21	81
910	6	21231	22	80
910	7	21231	22	75
910	8	21231	24	24
910	9	21231	21	90
911	0	24853	8	9
911	0	21231	22	80
911	1	21231	24	48
911	2	21231	22	45
911	3	21231	22	72
911	4	21231	23	75
911	6	21231	23	64
911	7	21231	23	45
911	8	21231	21	90
912	1	21231	23	30
912	1	25277	23	5
912	2	21231	23	45
912	3	21231	22	80
912	4	21231	23	64
912	5	21231	23	75
912	6	21231	24	48
912	6	25299	23	5
912	7	21231	23	48
912	8	21231	22	81
912	9	21231	22	81
913	0	21231	24	48
913	1	21231	22	81
913	2	21231	24	32
913	3	21231	23	75
913	4	21231	23	75
913	4	19013	21	6
913	5	21231	23	75
913	6	21231	23	81
913	7	21231	23	45
913	8	24965	4	27
913	8	21231	23	32
913	9	25277	19	8
913	9	21231	23	75
914	0	21231	23	30
914	1	21231	24	48
914	2	24853	13	12
914	2	21231	24	27
914	3	21231	24	40
914	4	21231	23	80
914	5	21231	22	90
914	6	21231	24	48
914	7	21231	24	45
914	8	21231	24	75
914	9	21231	23	30
915	0	21231	23	90
915	1	24965	4	20
915	1	21231	24	36
915	2	21231	23	45
915	3	21231	24	75
915	4	21231	24	45
915	5	21231	24	32
915	7	21231	24	45
916	1	24965	2	32
916	2	21231	22	90
916	3	21231	23	80
916	4	19013	22	6
916	7	21231	23	45
916	8	21231	23	64
916	9	24965	0	32
916	9	21231	23	30
917	0	24965	7	2
917	1	24965	5	27
917	4	21231	23	45
917	5	22679	14	10
917	6	21231	24	64
917	7	21231	24	48
917	8	21231	23	90
918	0	21231	22	90
918	1	24965	4	16
918	2	21231	23	80
918	3	22679	17	20
918	3	21231	23	32
918	4	21231	24	40
918	8	21231	22	80
918	9	24965	1	9
918	9	21231	22	81
919	0	21231	24	24
919	1	24965	7	20
919	1	21231	23	40
919	2	22679	23	5
919	2	21231	23	45
919	5	21231	23	64
919	6	21231	23	75
919	7	21231	23	45
919	8	21231	23	75
919	9	21231	22	90
920	0	21231	22	90
920	2	21231	23	45
920	3	21231	23	64
920	4	21231	22	50
920	5	21231	22	80
920	6	21231	23	27
920	8	24965	6	24
920	8	21231	23	60
920	9	21231	21	90
921	0	21231	21	72
921	1	24965	8	10
921	1	21231	24	36
921	2	22679	23	5
921	2	21231	24	32
921	3	23413	24	5
921	3	21231	23	75
921	4	21231	23	60
921	4	19013	23	5
921	5	21231	21	90
921	6	21231	23	54
921	7	21231	22	90
921	8	21231	23	60
921	9	21231	21	90
922	0	25391	1	25
922	0	22679	22	12
922	0	21231	24	48
922	1	21231	23	45
922	1	24965	6	18
922	2	22679	23	5
922	2	21231	24	45
922	3	21231	22	72
922	4	21231	23	80
922	6	21231	24	27
922	7	21231	23	75
922	8	25391	1	25
922	8	21231	23	54
922	9	21231	21	90
923	0	25391	2	2
923	0	21231	23	45
923	1	21231	23	45
923	2	22679	23	5
923	2	21231	24	45
923	4	21231	24	40
923	5	21231	21	90
923	6	21231	23	45
923	7	21231	22	80
923	8	21231	22	80
923	9	21231	22	80
923	9	24965	2	2
924	0	24965	11	1
924	0	21231	23	45
924	1	24965	11	15
924	1	21231	23	45
924	2	22679	23	5
924	2	21231	23	30
924	3	21231	23	40
924	4	21231	22	75
924	5	21231	23	75
924	6	21231	23	30
924	9	25923	14	10
925	0	21231	23	30
925	0	25955	2	2
925	1	25955	2	2
925	2	25955	2	2
925	2	22679	22	6
925	2	21231	23	45
925	3	21231	23	75
925	3	25955	2	2
925	4	21231	21	90
925	4	25955	2	2
925	5	25955	2	2
925	5	21231	22	90
925	6	21231	23	45
925	6	25955	2	2
925	7	25955	2	2
925	7	21231	23	45
925	7	25923	22	45
925	8	24965	0	6
925	8	25923	21	45
925	8	21231	23	40
925	9	21231	21	90
926	0	21231	23	45
926	1	25955	20	6
926	1	21231	24	45
926	2	22679	23	5
926	2	21231	23	45
926	3	21231	24	64
926	3	25875	11	15
926	4	21231	22	90
926	5	21231	22	90
926	6	21231	24	32
926	6	24965	5	27
926	7	24965	16	1
926	7	21231	22	90
926	8	21231	23	75
927	0	21231	24	48
927	1	25875	11	15
927	1	21231	23	75
927	2	22679	23	6
927	2	21231	24	45
927	3	21231	23	80
927	4	21231	24	64
927	5	21231	23	90
927	6	21231	24	45
927	7	21231	22	90
927	8	24965	2	45
927	8	21231	23	45
927	9	25923	21	6
927	9	21231	24	64
928	0	25955	6	24
928	0	21231	23	40
928	1	21231	22	90
928	2	22679	23	5
928	2	21231	23	32
928	4	21231	23	45
928	5	21231	22	90
928	6	21231	23	45
928	7	25923	23	36
928	7	21231	23	40
928	8	25923	19	30
928	8	21231	22	32
928	9	25923	19	30
929	0	25923	18	24
929	0	21231	24	24
929	2	22679	23	5
929	2	25923	14	30
929	2	21231	23	30
929	3	24965	6	15
929	3	21231	24	27
929	4	25923	19	27
929	4	21231	23	30
929	5	21231	24	64
929	5	25923	13	24
929	6	21231	23	30
929	7	21231	23	54
929	8	21231	21	90
930	0	25955	16	8
930	0	21231	23	81
930	1	21231	22	90
930	3	24965	5	27
930	3	21231	23	40
930	4	21231	23	32
930	6	21231	23	45
930	7	21231	23	90
930	8	21231	21	90
930	9	21231	22	90
931	0	21231	21	90
931	1	24965	1	15
931	1	21231	24	75
931	2	22679	23	5
931	2	24853	2	20
931	2	21231	24	24
931	3	24965	5	27
931	4	21231	23	90
931	5	21231	24	75
931	6	21231	23	45
931	7	21231	23	90
931	8	21231	23	90
931	9	25923	16	9
931	9	21231	24	75
932	2	22679	23	5
932	2	21231	24	36
932	3	21231	24	75
932	4	21231	24	81
932	6	21231	23	45
932	7	25923	23	40
932	7	21231	24	45
932	8	24965	4	30
932	8	25923	18	30
932	8	21231	23	32
932	9	25923	14	45
932	9	21231	24	45
933	0	25923	14	45
933	0	21231	24	45
933	1	21231	24	54
933	1	25923	16	30
933	2	22679	23	5
933	2	21231	23	45
933	3	21231	24	75
933	5	21231	24	81
933	6	21231	24	36
933	6	24965	3	20
933	8	21231	23	90
933	9	21231	21	90
934	1	21231	22	90
934	2	22679	19	8
934	2	21231	23	45
934	4	21231	22	90
934	5	21231	23	90
934	6	21231	24	27
934	7	21231	23	45
935	2	24853	13	12
935	2	22679	23	5
935	2	21231	24	40
935	5	21231	24	40
935	6	21231	24	32
935	8	21231	22	90
935	9	25923	14	10
935	9	21231	23	80
936	0	21231	22	90
936	2	22679	23	5
936	3	21231	22	80
936	4	21231	21	90
936	5	21231	23	75
936	6	21231	23	45
936	7	21231	24	45
936	8	24965	0	15
936	8	21231	23	75
936	9	21231	22	90
937	0	21231	22	90
937	1	21231	23	90
937	2	22679	23	5
937	2	21231	23	45
937	3	21231	23	80
937	4	21231	23	90
937	5	21231	23	90
937	7	21231	22	90
937	8	21231	22	90
937	9	21231	22	90
938	0	21231	23	75
938	2	22679	23	5
938	3	21231	23	75
938	5	21231	22	90
938	8	21231	22	90
938	9	21231	23	72
939	0	22679	16	2
939	0	21231	23	75
939	1	21231	24	64
939	2	22679	23	5
939	3	21231	21	80
939	4	21231	18	90
939	5	21231	21	80
939	7	23413	12	10
939	8	24965	3	25
939	8	21231	23	32
939	9	21231	23	60
940	0	21231	22	80
940	1	21231	21	90
940	2	22679	23	5
940	2	21231	22	45
940	3	21231	21	80
940	4	21231	21	90
940	5	21231	22	72
940	6	21231	22	80
940	7	21231	21	90
940	8	21231	21	30
940	9	21231	21	90
941	0	21231	21	90
941	1	21231	21	30
941	1	25923	13	12
941	2	22679	22	6
941	2	24853	22	6
941	2	21231	22	40
941	4	21231	22	90
941	5	21231	24	75
941	6	21231	23	75
941	7	21231	23	45
941	8	21231	22	45
941	9	21231	21	81
942	0	21231	23	20
942	1	21231	24	45
942	4	22679	18	8
942	5	21231	22	90
942	6	21231	23	90
942	7	21231	23	75
942	8	21231	22	45
942	9	25923	14	12
942	9	21231	22	75
943	0	21231	21	45
943	1	21231	18	81
943	2	24853	24	5
943	2	21231	19	75
943	3	21231	19	80
943	4	21231	18	90
943	5	21231	19	45
943	6	21231	21	80
943	7	21231	22	75
943	8	21231	21	90
943	9	21231	22	72
944	0	21231	24	24
944	0	24853	24	24
944	1	24853	17	45
944	1	21231	23	45
944	2	24853	18	40
944	2	21231	23	45
944	3	24853	17	45
944	3	21231	24	27
944	4	24853	19	12
944	4	21231	22	80
944	5	21231	22	80
944	6	21231	22	60
944	7	21231	21	80
944	9	21231	21	80
945	1	21231	21	90
945	2	21231	21	45
945	3	21231	19	75
945	4	21231	21	75
945	5	21231	21	81
945	6	21231	23	54
945	7	21231	21	90
945	8	21231	21	90
945	9	25923	10	15
945	9	21231	22	72
946	2	21231	23	40
946	3	21231	21	80
946	4	21231	24	48
946	5	21231	21	90
946	6	21231	22	81
946	7	21231	23	75
946	8	21231	23	45
946	9	21231	23	45
947	0	21231	23	45
947	1	21231	22	80
947	2	24853	15	10
947	2	21231	23	40
947	3	21231	23	64
947	4	21231	22	90
947	5	21231	21	90
948	6	21231	21	6
950	0	21231	23	5
952	2	24853	19	8
952	6	23611	16	8
953	4	23611	13	60
953	4	22679	18	8
955	3	23611	17	8
956	3	23611	12	15
957	1	23611	9	16
957	1	25961	2	2
957	2	25961	2	2
957	3	25961	2	2
957	3	23611	23	5
957	4	25961	2	2
957	5	25961	2	2
957	6	25961	2	2
957	7	25961	2	2
957	8	25961	2	2
958	2	25961	13	12
958	4	23611	9	16
959	2	23611	8	15
959	3	23611	14	10
959	6	25793	8	18
960	0	23611	16	5
960	2	24853	16	9
960	3	23611	4	36
961	1	25961	24	5
961	5	23611	13	12
962	3	23611	23	5
963	3	24419	9	16
963	3	23611	9	16
964	1	25961	23	6
964	3	23611	8	18
965	2	24853	16	9
965	3	25601	13	12
965	5	23611	12	15
966	1	25961	2	45
966	4	23611	6	27
966	9	24623	14	10
967	2	23611	16	4
967	3	23611	22	6
968	0	23611	12	9
968	3	24623	3	40
968	8	23611	19	4
969	3	23611	10	15
970	0	21231	17	8
970	1	23611	15	10
970	3	23611	10	15
970	3	25397	9	16
970	8	21231	22	24
971	0	25923	14	12
971	5	23611	18	8
971	8	25923	22	48
971	9	25923	22	48
972	0	25923	22	54
972	1	25923	22	48
972	2	25923	22	50
972	6	25923	15	18
973	0	21231	18	8
973	5	23611	15	9
973	8	21231	24	20
974	9	25923	16	9
975	7	25923	23	5
976	0	21231	17	8
977	9	21231	23	5
978	9	25923	12	15
980	0	21231	21	8
980	8	21231	22	90
980	9	21231	24	54
981	3	24623	6	24
981	5	23611	14	10
982	5	24623	19	8
982	5	23611	6	24
982	7	20409	11	15
983	5	20409	11	15
984	0	21231	24	5
984	3	24623	5	27
984	4	20409	10	15
984	8	21231	23	60
984	9	21231	23	90
985	0	21231	23	90
985	1	21231	24	32
985	2	21231	23	30
985	3	21231	22	6
986	0	21231	19	8
987	5	25471	23	5
987	5	23611	3	45
988	0	21231	16	9
988	8	21231	21	81
988	9	21231	21	90
989	0	21231	21	90
989	0	25471	2	2
989	1	21231	23	45
989	2	21231	23	45
989	3	21231	22	80
989	4	21231	21	90
989	5	21231	21	90
989	6	21231	21	24
989	9	21231	23	5
990	5	23611	12	15
991	0	21231	21	8
991	1	19013	23	5
991	6	20409	24	5
991	8	21231	24	75
991	9	21231	24	90
992	0	21231	24	90
992	1	21231	24	36
992	3	19013	24	5
993	4	21231	23	75
993	5	21231	19	30
993	6	21231	18	90
993	7	21231	19	80
993	8	21231	18	90
993	9	21231	23	20
994	0	25923	12	15
994	2	21231	19	75
994	3	21231	24	64
994	4	21231	22	90
994	6	21231	22	90
994	7	21231	23	75
994	8	21231	22	90
994	9	25923	16	9
994	9	21231	24	40
995	2	21231	23	80
995	5	24887	17	8
995	7	21231	22	40
996	4	21231	22	80
996	5	21231	21	90
996	6	21231	23	36
996	7	21231	21	90
996	8	21231	23	75
996	9	21231	23	60
997	0	21231	23	60
997	2	21231	23	75
997	3	25969	15	1
997	3	21231	24	75
997	4	21231	24	72
997	6	21231	23	72
997	7	21231	22	90
997	8	21231	22	45
997	9	25923	12	15
997	9	21231	23	75
998	0	21231	22	90
998	1	21231	22	50
998	2	21231	22	80
998	3	21231	22	24
998	6	21231	13	12
999	5	21231	21	81
999	6	21231	22	45
999	7	21231	14	6
1000	2	21231	21	81
1000	3	21231	21	36
1000	4	21231	21	81
1000	5	21231	23	75
1000	6	21231	23	54
1000	7	21231	23	75
1000	8	21231	23	75
1000	9	21231	21	90
1001	0	21231	24	24
1001	1	21231	21	90
1001	2	21231	23	45
1001	3	21231	23	75
1001	4	21231	22	90
1001	5	21231	23	45
1001	6	21231	23	72
1001	7	21231	22	90
1001	8	21231	23	30
1001	9	21231	23	90
1002	0	21231	22	15
1002	5	21231	23	75
1002	6	21231	23	54
1002	7	21231	23	90
1002	8	21231	24	8
1003	0	21231	19	8
1003	3	21231	24	40
1003	4	21231	24	24
1004	3	25977	2	2
1004	4	25977	2	2
1004	5	25977	2	2
1004	6	21231	23	54
1004	6	25977	2	2
1004	7	21231	23	30
1004	7	25977	2	2
1004	8	25977	2	2
1004	8	21231	24	45
1004	9	25977	2	2
1004	9	21231	24	9
1005	0	25977	2	2
1005	4	25977	2	2
1005	4	21231	24	54
1005	5	21231	24	48
1005	6	21231	23	90
1005	7	21231	23	45
1005	8	21231	23	90
1005	9	21231	23	90
1006	0	21231	24	45
1006	1	21231	24	32
1006	2	21231	24	45
1006	3	21231	22	36
1006	4	25689	9	16
1006	4	21231	23	40
1006	6	21231	23	45
1006	7	21231	24	45
1006	8	21231	24	45
1006	9	21231	23	30
1007	0	21231	23	45
1007	1	21231	23	30
1007	2	21231	24	45
1007	3	25977	11	15
1007	3	21231	24	32
1007	4	21231	24	45
1007	5	21231	24	45
1007	5	23611	2	2
1007	6	21231	14	10
1007	7	21231	24	27
1007	8	21231	23	80
1007	9	21231	23	80
1008	0	21231	24	45
1008	1	21231	24	75
1008	3	21231	24	27
1008	3	23611	6	16
1008	4	23611	13	4
1008	4	21231	24	75
1008	5	21231	23	60
1008	6	21231	24	32
1008	7	21231	24	45
1008	8	21231	24	24
1008	9	21231	24	54
1009	0	21231	24	45
1009	1	21231	24	45
1009	2	21231	24	54
1009	3	21231	24	36
1009	4	21231	23	45
1009	5	21231	24	45
1009	6	21231	24	45
1009	7	25977	11	15
1009	7	21231	24	48
1009	8	21231	23	45
1009	9	21231	23	90
1010	0	21231	23	90
1010	1	21231	22	90
1010	2	21231	23	90
1010	3	21231	24	75
1010	5	21231	24	27
1010	5	23611	23	5
1010	6	21231	21	90
1010	7	21231	23	75
1010	8	21231	22	40
1010	9	21231	23	45
1011	0	21231	22	72
1011	1	21231	24	48
1011	2	21231	23	75
1011	3	25977	19	8
1011	3	21231	24	36
1011	4	21231	22	90
1011	5	23611	11	15
1011	5	21231	24	64
1011	6	21231	21	90
1011	7	21231	23	75
1011	8	21231	24	72
1011	9	21231	23	75
1012	0	21231	23	45
1012	1	21231	22	90
1012	2	21231	22	90
1012	3	21231	23	72
1012	3	23611	8	6
1012	4	21231	22	90
1012	5	21231	23	45
1012	6	21231	21	90
1012	8	25341	12	15
1012	8	21231	23	72
1012	9	21231	21	90
1013	1	23611	7	3
1013	1	21231	23	75
1013	2	21231	23	45
1013	3	21231	22	80
1013	4	19013	19	8
1013	4	21231	23	80
1013	5	21231	21	90
1013	6	21231	23	75
1013	6	25341	12	15
1013	7	21231	21	90
1013	8	21231	23	45
1013	9	23611	23	2
1013	9	21231	23	20
1014	0	21231	21	90
1014	1	21231	23	75
1014	2	21231	21	90
1014	3	21231	24	25
1014	4	21231	24	45
1014	6	21231	21	90
1014	7	21231	21	81
1014	8	21231	24	48
1014	9	25711	21	8
1014	9	21231	22	45
1015	0	23611	23	5
1015	0	21231	23	45
1015	1	21231	23	54
1015	2	21231	24	48
1015	3	21231	24	27
1015	4	21231	24	45
1015	5	21231	24	45
1015	6	21231	21	90
1015	7	21231	23	90
1015	8	21231	24	75
1015	9	21231	23	90
1016	0	21231	22	90
1016	1	21231	23	80
1016	3	21231	24	32
1016	4	21231	21	90
1016	5	23611	7	20
1016	5	21231	24	36
1016	6	21231	23	81
1016	8	21231	21	90
1016	9	21231	22	75
1017	0	21231	21	81
1017	3	21231	19	80
1017	4	21231	21	90
1017	5	23611	11	15
1017	5	21231	22	75
1017	6	21231	21	81
1017	7	21231	23	40
1017	9	21231	21	90
1018	0	25983	2	2
1018	0	21231	22	81
1018	1	25983	2	2
1018	1	21231	22	80
1018	2	25983	2	2
1018	2	21231	21	81
1018	3	25983	2	2
1018	4	25983	2	2
1018	4	21231	22	80
1018	5	25983	2	2
1018	5	21231	23	36
1018	6	25983	2	2
1018	6	21231	23	40
1018	7	25983	2	2
1018	7	21231	21	81
1018	8	21231	22	45
1018	9	21231	21	81
1019	0	21231	18	90
1019	1	25983	20	6
1019	1	21231	22	30
1019	2	21231	21	90
1019	3	25981	12	1
1019	3	21231	22	75
1019	4	21231	23	75
1019	5	21231	23	90
1019	6	21231	23	75
1019	7	21231	23	45
1019	8	21231	23	45
1019	9	21231	22	80
1020	0	21231	23	45
1020	1	21231	23	75
1020	2	21231	22	90
1020	4	21231	21	90
1020	5	21231	23	45
1020	6	21231	21	90
1020	7	21231	23	30
1020	8	21231	23	60
1020	9	21231	21	90
1021	0	25983	2	2
1021	2	21231	23	75
1021	3	21231	21	72
1021	4	21231	22	45
1021	5	21231	23	32
1021	6	21231	23	32
1021	6	25989	2	2
1021	7	25623	23	5
1021	7	25989	2	2
1021	7	21231	24	18
1021	8	25983	7	2
1021	8	25989	2	2
1021	8	21231	23	48
1021	9	25989	2	2
1021	9	21231	24	48
1022	0	25989	2	2
1022	0	21231	23	50
1022	1	25989	2	2
1022	1	21231	23	48
1022	2	25989	2	2
1022	2	21231	23	50
1022	3	25989	2	2
1022	3	21231	24	40
1022	4	21231	22	90
1022	5	21231	21	81
1022	6	23079	19	8
1022	6	21231	23	75
1022	7	25989	19	8
1022	9	21231	23	45
1023	0	21231	21	81
1023	1	21231	21	75
1023	2	21231	22	45
1023	3	21231	21	80
1023	4	21231	21	81
1023	5	21231	21	90
1023	6	21231	22	75
1023	7	21231	23	45
1023	8	21231	23	75
1023	9	21231	22	90
0	0	25983	24	5
0	0	21231	22	80
0	1	21231	21	81
0	2	21231	23	45
0	3	21231	22	80
0	4	21231	23	45
0	5	21231	21	90
0	6	21231	23	60
0	6	25989	19	8
0	7	25299	15	9
0	7	21231	22	80
0	8	21231	22	80
0	9	21231	21	90
1	0	21231	23	75
1	2	21231	21	90
1	3	21231	22	80
1	4	21231	23	75
1	5	25299	15	9
1	5	21231	23	75
1	6	21231	23	75
1	7	21231	23	75
1	8	21231	23	30
1	9	21231	22	90
2	0	25983	4	30
2	0	21231	24	48
2	1	21231	22	90
2	3	21231	24	64
2	4	21231	22	90
2	5	21231	22	90
2	6	21231	23	75
2	6	25989	9	16
2	8	25983	4	30
2	8	21231	24	45
2	9	21231	23	45
3	0	25983	2	45
3	0	21231	23	45
3	1	21231	24	40
3	3	21231	23	75
3	4	21231	23	45
3	4	25989	12	45
3	5	21231	21	90
3	6	21231	22	80
3	7	21231	21	81
4	0	21231	23	45
4	1	21231	22	80
4	2	21231	22	81
4	5	21231	22	80
4	6	21231	21	90
4	7	21231	21	90
4	8	21231	22	45
4	9	21231	21	90
5	0	21231	23	27
5	1	21231	23	60
5	2	21231	21	90
5	3	21231	23	75
5	4	21231	23	75
5	5	21231	22	45
5	6	21231	21	90
5	7	21231	22	90
5	8	25625	18	8
5	8	21231	23	45
5	9	21231	23	75
6	0	21231	22	45
6	1	21231	23	80
6	2	21231	21	90
6	3	21231	23	75
6	3	25993	2	2
6	4	21231	21	90
6	4	25993	2	2
6	5	21231	21	81
6	5	25993	2	2
6	6	21231	22	80
6	6	25993	2	2
6	7	21231	22	90
6	7	25993	2	2
6	8	25993	2	2
6	8	21231	21	90
6	9	21231	23	64
6	9	25993	2	2
7	0	21231	23	75
7	0	25993	2	2
7	1	21231	23	50
7	2	21231	22	45
7	3	21231	22	80
7	4	25993	19	8
7	4	21231	23	45
7	5	21231	23	90
7	6	21231	21	90
7	7	21231	23	45
7	8	21231	23	45
7	9	21231	24	32
8	0	21231	24	20
8	2	21231	24	24
8	3	21231	24	20
8	4	21231	23	45
8	5	21231	23	12
8	6	21231	24	45
8	7	21231	24	40
8	8	21231	23	40
8	9	21231	21	12
9	2	21231	23	45
9	3	25993	14	10
9	3	21231	23	64
9	4	21231	24	48
9	7	21231	24	48
9	8	21231	24	48
10	0	21231	23	72
10	3	21231	23	80
10	4	21231	22	12
11	0	21231	23	75
11	1	21231	21	90
11	3	25993	14	12
11	3	21231	23	60
11	5	21231	24	27
11	6	21231	24	64
11	8	21231	24	45
12	1	25995	2	2
12	2	25995	2	2
12	5	25995	2	2
12	6	25995	2	2
12	7	25995	2	2
12	8	21231	24	40
12	9	21231	24	48
13	0	21231	23	80
13	1	21231	23	80
13	2	23413	7	18
13	2	25995	20	6
13	2	21231	24	32
13	4	25989	17	40
13	4	21231	24	48
13	8	21231	24	45
13	9	21231	24	81
14	1	25993	21	8
14	1	21231	24	9
14	2	21231	23	5
14	3	25993	19	8
14	3	21231	24	9
14	6	25989	13	12
15	1	25995	22	6
16	4	21231	23	75
16	6	21231	24	90
16	7	21231	24	90
16	8	21231	24	45
16	9	21231	24	75
17	0	21231	24	45
17	1	25995	14	10
17	1	21231	24	36
17	2	23413	21	6
17	2	21231	24	81
17	3	21231	23	80
17	7	21231	21	90
17	8	21231	23	45
17	9	21231	24	36
18	1	21231	21	90
18	2	21231	23	75
18	3	21231	23	40
18	4	21231	22	80
19	0	21231	24	32
19	1	25995	22	6
19	6	21231	23	80
19	8	21231	23	64
20	1	25997	2	2
20	2	25997	2	2
20	4	21231	23	64
20	4	25997	2	2
20	5	25997	2	2
20	6	25997	2	2
20	6	21231	24	48
20	8	25997	2	2
21	3	21231	24	20
21	4	25997	20	6
21	6	21231	23	30
21	6	20409	23	5
21	7	21231	21	90
21	8	21231	23	60
22	0	21231	23	60
22	6	20409	11	15
22	9	21231	21	81
23	1	25997	19	2
23	4	21231	22	80
23	5	21231	21	90
23	8	21231	24	36
24	5	21231	21	81
24	6	21231	21	81
25	1	25997	24	5
25	2	21231	21	90
25	4	24623	3	36
26	5	21231	19	90
26	7	21231	21	81
27	1	25997	14	10
27	3	21231	21	80
27	4	21231	21	81
27	6	21231	21	90
27	7	21231	21	90
27	8	21231	22	45
27	9	21231	21	90
28	0	21231	21	90
28	1	21231	21	90
28	2	21231	21	90
28	3	21231	21	40
28	4	21231	22	81
28	5	24623	4	36
28	5	21231	23	54
28	6	21231	22	81
28	7	21231	22	75
28	8	21231	21	45
28	9	21231	21	81
29	0	21231	21	45
29	1	21231	21	81
29	2	21231	23	54
29	3	21231	22	75
29	4	21231	22	90
29	6	21231	22	90
29	8	21231	22	90
29	9	21231	21	90
30	1	21231	21	90
30	2	21231	22	90
30	3	21231	23	75
30	4	24623	10	15
30	4	21231	23	72
30	6	21231	21	90
30	7	21231	21	90
30	9	21231	21	81
31	0	21231	21	30
31	1	21231	21	90
31	2	21231	23	72
31	3	21231	21	80
31	4	21231	21	81
31	5	21231	21	36
31	6	21231	21	81
31	6	20409	14	10
31	7	21231	21	81
31	8	21231	19	36
32	1	21231	18	90
32	3	26013	2	2
32	3	21231	22	64
32	4	24623	16	8
32	4	26013	2	2
32	5	26013	2	2
32	6	26013	2	2
32	6	21231	23	30
32	7	21231	23	45
32	7	26013	2	2
32	8	26013	2	2
32	8	21231	22	75
32	9	26013	2	2
32	9	21231	23	8
33	0	21231	22	6
33	0	26013	2	2
33	1	21231	23	54
33	2	21231	23	50
33	3	21231	23	40
33	4	21231	23	30
33	4	26013	20	6
33	5	21231	23	30
33	6	21231	23	54
33	6	20409	14	10
33	7	21231	21	90
33	8	21231	22	45
34	0	21231	21	81
34	1	21231	23	64
34	2	21231	23	54
34	3	21231	23	54
34	4	21231	23	36
34	4	24623	5	18
34	5	21231	24	48
34	6	21231	23	60
34	7	21231	24	36
34	8	21231	23	40
34	9	21231	24	45
35	0	21231	24	48
35	1	21231	23	60
35	2	24623	2	30
35	2	21231	24	36
35	3	26013	18	8
35	3	21231	24	40
35	3	24623	9	2
35	4	21231	22	90
35	5	21231	22	80
35	6	21231	23	64
35	6	25989	9	16
35	7	21231	22	80
35	8	21231	24	24
35	9	21231	22	90
36	0	24623	6	25
36	0	21231	23	64
36	1	21231	22	80
36	2	21231	23	45
36	3	21231	23	64
36	4	21231	22	81
36	5	21231	22	80
36	6	20409	6	24
36	7	24623	18	8
36	7	21231	22	45
36	8	25989	16	9
36	8	21231	21	30
36	9	21231	22	72
37	1	21231	22	81
37	2	21231	24	40
37	3	26013	24	5
37	3	21231	23	64
37	4	21231	22	81
37	5	21231	23	75
37	6	21231	23	80
37	7	21231	22	75
37	8	21231	23	40
38	0	21231	24	48
38	1	21231	24	45
38	2	21231	24	48
38	3	24623	9	2
38	4	21231	23	54
38	5	21231	23	45
38	6	20409	23	5
38	6	21231	23	45
38	6	25989	19	8
38	7	21231	24	54
38	8	21231	24	54
38	9	21231	23	45
39	1	24623	6	9
39	1	21231	24	27
39	2	21231	24	32
39	3	26013	16	8
39	3	21231	24	24
39	4	20409	22	1
39	4	21231	24	32
39	5	21231	24	25
39	6	21231	23	27
39	7	21231	23	27
39	8	21231	23	27
40	0	21231	23	24
40	2	20409	23	3
40	2	21231	21	24
40	3	21231	23	27
40	4	21231	23	36
40	5	21231	23	45
40	7	21231	22	45
40	8	21231	23	45
41	0	20409	9	8
41	0	21231	23	27
41	1	21231	23	45
41	2	21231	23	40
41	3	21231	24	40
41	4	21231	24	48
41	5	21231	23	40
41	6	21231	23	45
41	8	21231	23	48
41	9	21231	24	48
42	0	21231	24	24
42	1	21231	23	36
42	2	21231	23	50
42	3	21231	24	36
42	4	21231	24	48
42	5	21231	24	48
42	6	20409	24	5
42	6	21231	23	64
42	6	25989	16	8
42	7	21231	22	80
42	8	21231	22	90
42	9	21231	23	75
43	0	21231	22	75
43	1	21231	22	81
43	2	21231	24	32
43	3	21231	23	40
43	4	21231	23	75
43	5	21231	21	90
43	6	21231	21	80
43	7	21231	21	90
43	8	21231	21	90
43	9	21231	21	90
44	0	21231	23	54
44	1	21231	24	40
44	2	20409	24	25
44	2	21231	24	64
44	3	21231	24	40
44	4	21231	23	75
44	5	21231	21	90
44	6	21231	21	90
44	7	21231	22	90
44	8	21231	21	90
44	9	21231	23	60
45	0	21231	23	45
45	1	21231	21	90
45	2	21231	24	45
45	3	21231	23	80
45	4	21231	22	90
45	5	21231	22	90
45	6	21231	23	75
45	7	21231	23	75
45	8	21231	24	64
45	9	21231	21	90
46	0	21231	22	90
46	1	21231	24	48
46	2	21231	23	45
46	3	21231	23	64
46	4	21231	21	90
46	6	21231	22	90
46	7	21231	23	90
46	8	21231	22	90
46	9	21231	24	45
47	0	21231	23	60
47	1	21231	23	75
47	2	21231	23	30
47	3	21231	24	75
47	6	21231	24	72
47	6	20409	8	18
47	7	21231	23	60
47	9	21231	22	90
48	0	21231	22	90
48	1	21231	22	90
48	2	21231	22	90
48	3	21231	22	80
48	4	21231	22	30
48	5	21231	23	75
48	6	21231	23	45
48	8	21231	22	90
48	9	21231	22	90
49	0	21231	24	64
49	1	21231	23	45
49	2	25329	23	5
49	2	21231	23	45
49	3	21231	24	64
49	3	24623	12	15
49	4	21231	23	45
49	6	21231	22	90
49	7	21231	22	90
49	8	21231	23	72
49	9	21231	24	75
50	0	21231	21	90
50	2	21231	23	90
50	3	21231	23	80
50	4	21231	24	45
50	5	24623	23	5
50	5	25623	9	16
50	5	21231	24	36
50	6	21231	24	81
50	6	20409	15	9
50	8	21231	23	90
51	2	21231	22	80
51	3	25623	9	16
51	3	21231	23	24
51	4	21231	23	45
51	5	21231	22	90
51	6	21231	21	90
51	7	21231	22	80
51	8	21231	21	81
51	9	21231	22	81
52	0	21231	22	54
52	3	24623	2	60
52	6	20409	17	8
52	9	21231	23	6
53	3	26017	3	3
53	6	20409	9	16
53	7	21231	18	15
54	5	26021	2	2
54	6	26021	2	2
54	7	26021	2	2
54	8	26021	2	2
54	9	26021	2	2
55	0	26021	2	2
55	0	21231	22	6
55	1	26021	2	2
55	2	26021	2	2
55	6	26021	14	10
55	6	20409	12	15
57	5	26021	2	2
58	3	26021	2	2
58	4	26021	3	3
60	3	24623	2	54
60	5	26021	4	36
60	7	25793	11	15
62	3	24623	4	36
63	3	25189	17	8
63	5	25793	22	6
64	7	25189	14	10
66	3	24623	11	15
68	3	24623	7	20
69	1	24623	6	45
69	2	24623	21	2
69	9	24623	10	27
70	9	24965	9	16
71	0	21231	10	15
71	7	24965	4	36
71	9	25391	2	2
71	9	21231	24	90
72	0	21231	24	24
72	0	24965	9	16
72	0	20409	23	5
72	1	21231	24	90
72	2	21231	24	90
72	4	21231	24	90
72	5	21231	24	90
72	6	21231	23	30
72	8	21231	23	30
72	8	25853	17	8
72	9	21231	23	90
73	0	21231	23	45
73	1	21231	24	81
73	2	21231	23	90
73	4	21231	23	45
73	5	21231	23	90
73	6	21231	24	75
73	6	23079	16	9
73	6	20409	18	8
73	8	24965	7	18
73	8	21231	24	24
74	0	24965	5	24
74	0	21231	22	45
74	1	21231	23	90
74	2	21231	22	90
74	3	24623	7	20
74	4	21231	21	90
74	5	25623	10	15
74	5	21231	22	36
74	6	21231	23	64
74	8	21231	23	45
74	9	21231	23	90
75	0	24965	7	2
75	2	21231	22	90
75	3	25623	10	15
75	3	21231	23	64
75	4	21231	23	80
75	5	21231	23	54
75	6	21231	23	80
75	6	23079	23	6
75	7	21231	23	90
75	8	24965	5	25
76	0	21231	23	45
76	2	21231	22	90
76	3	21231	22	40
76	4	23079	23	8
76	4	21231	23	75
76	5	21231	23	90
76	6	21231	23	90
76	8	21231	23	45
76	9	21231	24	75
77	0	21231	23	45
77	1	21231	24	40
77	2	21231	22	90
77	4	21231	23	90
77	5	23079	19	8
77	5	21231	23	80
77	6	21231	23	75
77	8	24965	15	1
77	8	23079	23	5
77	8	21231	24	24
77	9	21231	23	45
78	0	21231	24	54
78	1	21231	22	90
78	2	21231	23	90
78	3	21231	23	75
78	4	21231	22	90
78	6	21231	23	32
78	6	24965	2	30
78	7	24965	3	6
78	8	21231	24	36
78	9	21231	23	30
78	9	24965	9	16
79	0	21231	23	90
79	1	21231	24	45
79	4	21231	21	90
79	5	22679	24	5
79	5	23079	24	5
79	5	21231	23	72
79	6	21231	22	90
79	7	21231	23	90
79	8	24965	0	15
79	8	21231	24	25
80	0	21231	23	45
80	4	22679	23	5
80	5	21231	21	90
80	6	21231	24	48
80	6	24965	2	2
80	7	24965	22	1
80	7	21231	23	75
80	9	21231	22	90
81	0	21231	22	30
81	2	21231	23	90
81	3	21231	24	75
81	4	21231	23	45
81	5	21231	22	90
81	6	21231	23	72
81	7	21231	24	64
81	8	21231	23	80
81	9	21231	23	80
82	0	21231	23	45
82	1	21231	22	90
82	2	21231	22	90
82	3	21231	23	80
82	4	21231	23	90
82	5	21231	23	72
82	5	23079	18	8
82	6	21231	23	80
82	7	21231	23	90
82	8	21231	23	45
82	9	21231	21	90
83	0	21231	23	30
83	1	21231	22	90
83	2	21231	21	90
83	3	21231	22	80
83	4	21231	21	90
83	5	23079	19	8
83	5	21231	23	80
83	6	21231	23	75
83	7	21231	22	90
83	8	21231	24	45
83	9	21231	22	90
84	0	21231	23	45
84	1	21231	24	64
84	2	25171	0	24
84	2	21231	23	60
84	3	21231	23	72
84	4	21231	23	90
84	7	21231	21	90
84	8	21231	22	81
84	9	21231	21	90
85	0	21231	22	90
85	1	21231	24	75
85	2	21231	23	45
85	4	21231	23	75
85	5	21231	19	90
85	6	21231	24	48
85	7	21231	22	80
85	8	23079	22	6
85	8	21231	22	45
86	0	21231	22	81
86	3	21231	23	40
86	3	25171	4	36
86	4	21231	19	90
86	5	21231	22	45
86	5	25111	1	5
86	6	21231	23	45
86	8	21231	22	81
86	9	21231	19	90
87	0	21231	21	90
87	1	21231	21	81
87	2	21231	21	81
87	3	21231	19	80
87	4	21231	24	48
87	5	23079	14	10
87	5	21231	22	80
87	6	21231	22	81
87	8	21231	21	81
87	9	21231	21	81
88	0	21231	22	90
88	1	21231	21	81
88	2	21231	21	90
88	4	21231	22	75
88	5	21231	22	80
88	6	21231	23	54
88	6	20409	7	18
88	7	21231	21	81
88	8	21231	21	90
88	9	21231	22	80
89	0	21231	21	81
89	1	21231	24	36
89	2	21231	24	45
89	3	21231	24	54
89	4	21231	23	60
89	5	21231	22	90
89	6	21231	22	90
89	7	21231	23	45
89	8	21231	22	90
89	9	23079	17	4
89	9	21231	22	81
90	1	21231	24	27
90	1	20409	23	5
90	2	23079	23	5
90	2	21231	23	45
90	4	21231	21	90
90	5	21231	21	90
90	6	21231	21	90
90	7	21231	21	90
90	8	21231	21	90
90	9	21231	23	45
91	2	21231	22	90
91	5	23079	17	8
91	5	21231	23	40
91	6	21231	23	40
91	6	20409	14	10
91	7	21231	23	54
91	9	21231	23	75
92	0	21231	22	90
92	1	26045	2	2
92	1	21231	23	80
92	2	26045	2	2
92	2	21231	24	75
92	3	23079	22	20
92	3	21231	24	48
92	3	26045	2	2
92	4	21231	23	60
92	4	26045	2	2
92	5	26045	2	2
92	5	21231	24	48
92	6	21231	24	64
92	6	26045	2	2
92	7	21231	23	75
92	7	26045	2	2
92	8	26045	2	2
92	8	21231	23	45
92	9	21231	24	64
93	0	21231	23	72
93	1	21231	23	80
93	2	26045	20	6
93	2	21231	23	45
93	3	21231	24	48
93	4	23079	22	6
93	4	21231	23	30
93	5	25329	22	6
93	5	21231	23	80
93	6	21231	22	90
93	7	21231	23	75
93	8	21231	24	36
94	1	21231	22	90
94	2	21231	24	40
94	3	21231	23	80
94	4	21231	23	90
94	5	21231	23	80
94	5	23079	18	8
94	7	21231	23	90
94	8	24965	16	8
94	8	21231	24	40
94	9	21231	23	90
95	0	21231	23	40
95	1	26045	15	9
95	1	21231	23	75
95	2	21231	22	90
95	3	23079	22	24
95	4	21231	23	90
95	5	21231	24	75
95	6	21231	23	80
95	7	21231	23	45
95	9	21231	23	45
96	0	21231	23	90
96	2	21231	23	90
96	4	23079	23	5
96	4	21231	23	45
96	5	21231	24	40
96	5	25329	16	9
96	6	21231	24	40
96	7	21231	22	90
96	8	21231	23	90
96	9	21231	23	45
97	0	21231	23	45
97	0	25875	14	10
97	1	26045	17	8
97	1	21231	23	80
97	2	23079	23	4
97	2	21231	23	80
97	3	21231	23	80
97	4	23079	23	5
97	4	21231	23	45
97	5	21231	23	90
97	6	21231	23	90
97	7	21231	22	90
97	8	21231	23	75
97	9	21231	21	90
98	0	21231	23	90
98	1	21231	23	30
98	2	21231	23	90
98	3	21231	23	75
98	4	21231	22	90
98	5	23079	18	8
98	5	21231	23	80
98	6	21231	23	45
98	7	21231	24	48
98	8	21231	24	40
98	9	21231	23	30
98	9	24623	9	16
99	0	21231	24	48
99	1	21231	24	32
99	5	21231	24	45
99	6	21231	24	45
99	7	21231	24	45
99	8	21231	24	45
99	9	21231	24	25
100	1	26045	28	4
100	1	23079	23	6
100	3	21231	24	40
100	4	23079	23	5
100	4	21231	23	30
100	5	21231	24	45
100	5	25329	9	16
100	6	21231	24	40
100	7	21231	23	45
100	9	24623	17	4
101	0	21231	23	45
101	1	21231	23	50
101	2	21231	23	30
101	3	21231	24	40
101	4	21231	23	45
101	5	21231	24	45
101	6	21231	24	48
101	7	21231	24	45
101	8	21231	24	40
101	9	21231	24	45
102	0	21231	23	32
102	1	21231	24	32
102	2	21231	24	48
102	3	24623	24	5
102	4	21231	23	45
102	5	23079	19	8
102	6	21231	23	45
102	6	26047	2	2
102	7	26047	2	2
102	7	21231	23	45
102	8	26047	2	2
102	8	21231	24	48
102	9	26047	2	2
102	9	21231	24	48
103	0	21231	24	45
103	0	26047	2	2
103	1	26047	2	2
103	1	21231	24	32
103	2	21231	24	45
103	3	23079	18	3
103	3	21231	24	36
103	3	26047	2	2
103	4	21231	23	45
103	5	21231	24	48
103	7	26047	9	16
103	7	21231	23	30
103	8	21231	24	48
103	9	21231	24	45
104	0	21231	24	40
104	1	21231	24	48
104	3	21231	24	36
104	3	24623	19	8
104	4	21231	23	50
104	5	25623	10	15
104	5	21231	24	36
104	6	21231	23	45
104	7	21231	23	45
104	8	21231	23	32
104	9	21231	24	48
105	0	23079	23	5
105	1	21231	24	48
105	1	24623	17	4
105	2	21231	24	40
105	3	25623	10	15
105	3	21231	24	32
105	5	24623	23	5
105	5	21231	23	30
105	6	26047	2	25
105	6	21231	23	32
105	7	21231	22	45
105	9	21231	23	45
106	0	21231	23	24
106	1	21231	22	45
106	2	21231	23	32
106	3	21231	24	25
106	4	21231	24	45
106	5	21231	23	45
106	5	23079	24	5
106	6	21231	24	20
106	7	21231	24	45
106	9	21231	24	40
107	0	21231	24	32
107	1	24623	13	8
107	2	21231	23	45
107	3	21231	24	40
107	3	23079	24	10
107	4	21231	22	20
107	5	21231	23	30
107	6	21231	23	36
107	7	19831	22	6
107	7	26049	2	2
107	7	21231	23	30
107	8	26049	2	2
107	8	21231	23	45
107	9	21231	23	45
107	9	26049	2	2
108	0	26049	2	2
108	1	26049	2	2
108	1	23079	13	1
108	1	21231	24	25
108	2	26049	2	2
108	2	21231	24	36
108	3	21231	24	24
108	3	26049	2	2
108	4	26049	2	2
108	4	21231	24	25
108	5	21231	24	36
108	6	26047	6	24
108	6	21231	24	36
108	7	21231	21	90
108	8	26049	20	6
108	8	21231	23	45
108	9	23079	24	9
109	2	23079	23	5
109	2	21231	23	30
109	3	21231	24	36
109	3	24623	23	5
109	4	21231	24	48
109	5	21231	22	90
109	7	21231	22	90
109	9	21231	23	75
110	0	21231	22	90
110	1	21231	24	75
110	2	23079	23	5
110	2	21231	24	45
110	3	21231	24	75
110	4	21231	24	75
110	5	21231	24	45
110	7	26049	12	15
110	7	21231	23	72
110	8	21231	22	90
